0 qid:1 1:0.000000 2:0.000000 3:0.000000
1 qid:1 1:0.000000 2:0.976608 3:0.982456
0 qid:1 1:0.000000 2:0.000000 3:0.000000
0 qid:1 1:0.000000 2:0.000000 3:0.000000
0 qid:1 1:0.000000 2:0.000000 3:0.000000
0 qid:1 1:0.000000 2:0.000000 3:0.000000
0 qid:1 1:0.000000 2:0.000000 3:0.000000
0 qid:1 1:0.000000 2:0.000000 3:0.000000
0 qid:1 1:0.000000 2:0.000000 3:0.000000
0 qid:1 1:0.000000 2:0.000000 3:0.000000
0 qid:3 1:0.000000 2:0.000000 3:0.000000
0 qid:3 1:0.000000 2:0.795322 3:0.953216
1 qid:3 1:0.000000 2:0.976608 3:0.994152
0 qid:3 1:0.000000 2:0.000000 3:0.000000
0 qid:3 1:0.000000 2:0.000000 3:0.000000
0 qid:3 1:0.000000 2:0.000000 3:0.000000
0 qid:3 1:0.000000 2:0.000000 3:0.000000
0 qid:3 1:0.000000 2:0.000000 3:0.000000
0 qid:3 1:0.000000 2:0.000000 3:0.000000
0 qid:3 1:0.000000 2:0.000000 3:0.000000
0 qid:4 1:0.000000 2:0.000000 3:0.000000
1 qid:4 1:0.000000 2:0.941520 3:0.988304
0 qid:4 1:0.000000 2:0.883041 3:0.970760
0 qid:4 1:0.000000 2:0.000000 3:0.000000
0 qid:4 1:0.000000 2:0.000000 3:0.000000
0 qid:4 1:0.000000 2:0.000000 3:0.000000
0 qid:4 1:0.000000 2:0.000000 3:0.000000
0 qid:4 1:0.000000 2:0.000000 3:0.000000
0 qid:4 1:0.000000 2:0.000000 3:0.000000
0 qid:4 1:0.000000 2:0.000000 3:0.000000
0 qid:5 1:0.421053 2:0.000000 3:0.000000
0 qid:5 1:0.421053 2:0.000000 3:0.000000
0 qid:5 1:0.421053 2:0.000000 3:0.000000
0 qid:5 1:0.421053 2:0.000000 3:0.000000
0 qid:5 1:0.421053 2:0.000000 3:0.000000
0 qid:5 1:0.421053 2:0.000000 3:0.000000
0 qid:5 1:0.421053 2:0.000000 3:0.000000
0 qid:5 1:0.421053 2:0.000000 3:0.000000
0 qid:5 1:0.421053 2:0.000000 3:0.000000
0 qid:5 1:0.421053 2:0.000000 3:0.000000
1 qid:5 1:0.421053 2:0.883041 3:0.912281
0 qid:5 1:0.421053 2:0.000000 3:0.000000
0 qid:5 1:0.421053 2:0.000000 3:0.000000
0 qid:5 1:0.421053 2:0.000000 3:0.000000
0 qid:6 1:0.970760 2:0.000000 3:0.000000
0 qid:6 1:0.725146 2:0.000000 3:0.000000
1 qid:6 1:0.935673 2:0.883041 3:0.824561
0 qid:6 1:0.725146 2:0.000000 3:0.000000
0 qid:6 1:0.725146 2:0.000000 3:0.000000
0 qid:6 1:0.725146 2:0.000000 3:0.000000
0 qid:6 1:0.725146 2:0.000000 3:0.000000
0 qid:6 1:0.725146 2:0.000000 3:0.000000
1 qid:8 1:0.000000 2:0.883041 3:0.883041
0 qid:8 1:0.000000 2:0.795322 3:0.953216
0 qid:8 1:0.000000 2:0.000000 3:0.000000
0 qid:8 1:0.000000 2:0.000000 3:0.000000
0 qid:8 1:0.000000 2:0.000000 3:0.000000
0 qid:8 1:0.000000 2:0.000000 3:0.000000
0 qid:8 1:0.000000 2:0.000000 3:0.000000
0 qid:8 1:0.000000 2:0.000000 3:0.000000
0 qid:8 1:0.000000 2:0.795322 3:0.801170
0 qid:8 1:0.000000 2:0.795322 3:0.836257
2 qid:9 1:0.000000 2:0.941520 3:0.964912
3 qid:9 1:0.000000 2:0.941520 3:1.000000
1 qid:9 1:0.000000 2:0.941520 3:0.976608
0 qid:9 1:0.000000 2:0.000000 3:0.000000
0 qid:9 1:0.000000 2:0.000000 3:0.000000
0 qid:9 1:0.000000 2:0.000000 3:0.000000
0 qid:9 1:0.000000 2:0.000000 3:0.000000
0 qid:9 1:0.000000 2:0.000000 3:0.000000
0 qid:9 1:0.000000 2:0.795322 3:0.801170
0 qid:9 1:0.000000 2:0.795322 3:0.836257
0 qid:8 1:0.970760 2:0.000000 3:0.000000
1 qid:8 1:0.725146 2:0.883041 3:0.877193
0 qid:8 1:0.935673 2:0.795322 3:0.801170
0 qid:8 1:0.725146 2:0.000000 3:0.000000
0 qid:8 1:0.725146 2:0.000000 3:0.000000
0 qid:8 1:0.725146 2:0.000000 3:0.000000
0 qid:8 1:0.725146 2:0.000000 3:0.000000
0 qid:8 1:0.725146 2:0.000000 3:0.000000
0 qid:11 1:0.970760 2:0.000000 3:0.000000
1 qid:11 1:0.725146 2:0.941520 3:0.888889
0 qid:11 1:0.935673 2:0.795322 3:0.801170
0 qid:11 1:0.725146 2:0.000000 3:0.000000
0 qid:11 1:0.725146 2:0.000000 3:0.000000
0 qid:11 1:0.725146 2:0.000000 3:0.000000
0 qid:11 1:0.725146 2:0.000000 3:0.000000
0 qid:11 1:0.725146 2:0.000000 3:0.000000
0 qid:13 1:0.970760 2:0.000000 3:0.000000
1 qid:13 1:0.725146 2:0.976608 3:0.906433
2 qid:13 1:0.935673 2:0.941520 3:0.929825
0 qid:13 1:0.725146 2:0.000000 3:0.000000
0 qid:13 1:0.725146 2:0.000000 3:0.000000
0 qid:13 1:0.725146 2:0.000000 3:0.000000
0 qid:13 1:0.725146 2:0.000000 3:0.000000
0 qid:13 1:0.725146 2:0.000000 3:0.000000
0 qid:15 1:0.970760 2:0.000000 3:0.000000
1 qid:15 1:0.725146 2:1.000000 3:0.923977
0 qid:15 1:0.935673 2:0.883041 3:0.894737
0 qid:15 1:0.725146 2:0.000000 3:0.000000
0 qid:15 1:0.725146 2:0.000000 3:0.000000
0 qid:15 1:0.725146 2:0.000000 3:0.000000
0 qid:15 1:0.725146 2:0.000000 3:0.000000
0 qid:15 1:0.725146 2:0.000000 3:0.000000
0 qid:17 1:0.970760 2:0.000000 3:0.000000
0 qid:17 1:0.725146 2:0.976608 3:0.918129
0 qid:17 1:0.935673 2:0.883041 3:0.894737
0 qid:17 1:0.725146 2:0.000000 3:0.000000
0 qid:17 1:0.725146 2:0.000000 3:0.000000
0 qid:17 1:0.725146 2:0.000000 3:0.000000
0 qid:17 1:0.725146 2:0.000000 3:0.000000
0 qid:17 1:0.725146 2:0.000000 3:0.000000
0 qid:18 1:0.421053 2:0.000000 3:0.000000
0 qid:18 1:0.421053 2:0.000000 3:0.000000
0 qid:18 1:0.421053 2:0.000000 3:0.000000
0 qid:18 1:0.421053 2:0.883041 3:0.935673
0 qid:18 1:0.421053 2:0.000000 3:0.000000
0 qid:18 1:0.421053 2:0.000000 3:0.000000
0 qid:18 1:0.421053 2:0.000000 3:0.000000
0 qid:18 1:0.421053 2:0.795322 3:0.836257
0 qid:18 1:0.421053 2:0.000000 3:0.000000
0 qid:18 1:0.421053 2:0.000000 3:0.000000
0 qid:20 1:0.421053 2:0.000000 3:0.000000
0 qid:20 1:0.421053 2:0.000000 3:0.000000
0 qid:20 1:0.421053 2:0.795322 3:0.865497
3 qid:20 1:0.421053 2:0.883041 3:0.935673
0 qid:20 1:0.421053 2:0.000000 3:0.000000
0 qid:20 1:0.421053 2:0.000000 3:0.000000
0 qid:20 1:0.421053 2:0.000000 3:0.000000
2 qid:20 1:0.421053 2:0.795322 3:0.836257
0 qid:20 1:0.421053 2:0.000000 3:0.000000
0 qid:20 1:0.421053 2:0.000000 3:0.000000
0 qid:23 1:0.421053 2:0.000000 3:0.000000
0 qid:23 1:0.421053 2:0.000000 3:0.000000
0 qid:23 1:0.421053 2:0.795322 3:0.865497
0 qid:23 1:0.421053 2:0.883041 3:0.935673
0 qid:23 1:0.421053 2:0.000000 3:0.000000
0 qid:23 1:0.421053 2:0.000000 3:0.000000
0 qid:23 1:0.421053 2:0.000000 3:0.000000
0 qid:23 1:0.421053 2:0.795322 3:0.836257
0 qid:23 1:0.421053 2:0.000000 3:0.000000
0 qid:23 1:0.421053 2:0.000000 3:0.000000
1 qid:26 1:0.678363 2:0.795322 3:0.795322
0 qid:26 1:0.327485 2:0.000000 3:0.000000
0 qid:26 1:0.327485 2:0.000000 3:0.000000
0 qid:26 1:0.327485 2:0.000000 3:0.000000
0 qid:26 1:0.327485 2:0.000000 3:0.000000
0 qid:26 1:0.678363 2:0.000000 3:0.000000
0 qid:26 1:0.678363 2:0.000000 3:0.000000
0 qid:26 1:0.678363 2:0.000000 3:0.000000
1 qid:26 1:0.327485 2:0.795322 3:0.830409
0 qid:26 1:0.327485 2:0.000000 3:0.000000
0 qid:27 1:0.678363 2:0.000000 3:0.000000
0 qid:27 1:0.327485 2:0.000000 3:0.000000
0 qid:27 1:0.292398 2:0.000000 3:0.000000
0 qid:27 1:0.327485 2:0.000000 3:0.000000
0 qid:27 1:0.292398 2:0.000000 3:0.000000
0 qid:27 1:0.327485 2:0.000000 3:0.000000
0 qid:27 1:0.327485 2:0.000000 3:0.000000
0 qid:27 1:0.327485 2:0.000000 3:0.000000
0 qid:27 1:0.292398 2:0.000000 3:0.000000
0 qid:27 1:0.292398 2:0.000000 3:0.000000
0 qid:27 1:0.327485 2:0.000000 3:0.000000
0 qid:27 1:0.678363 2:0.000000 3:0.000000
0 qid:27 1:0.678363 2:0.000000 3:0.000000
0 qid:27 1:0.292398 2:0.000000 3:0.000000
0 qid:27 1:0.678363 2:0.000000 3:0.000000
0 qid:27 1:0.327485 2:0.000000 3:0.000000
0 qid:27 1:0.292398 2:0.000000 3:0.000000
0 qid:27 1:0.327485 2:0.000000 3:0.000000
0 qid:27 1:0.327485 2:0.000000 3:0.000000
0 qid:27 1:0.327485 2:0.000000 3:0.000000
